dplyr сheat sheet
…
Выполним установку пакета dplyr и загрузим набор данных starwars

library(dplyr) 
 starwars <- dplyr::starwars

Выборка данных

В R возможно делать выборку столбцов разными стособами. Просто перечислить названия столбцов или их номера, перечислить какие столбцы не нужно выводить или выводить столбцы с именем соответствующим определенному условию. 

Перечисление

starwars %>% 
  select(name)

# A tibble: 87 × 1
   name              
   <chr>             
 1 Luke Skywalker    
 2 C-3PO             
 3 R2-D2             
 4 Darth Vader       
 5 Leia Organa       
 6 Owen Lars         
 7 Beru Whitesun lars
 8 R5-D4             
 9 Biggs Darklighter 
10 Obi-Wan Kenobi    
# … with 77 more rows

Отрицательное перечисление

Если нужно указать какой столбец не включать в выборку то ставится знак минус:

starwars %>% 
  select(-c(name, mass))

# A tibble: 87 × 12
   height hair_color  skin_…¹ eye_c…² birth…³ sex   gender homew…⁴ species films
    <int> <chr>       <chr>   <chr>     <dbl> <chr> <chr>  <chr>   <chr>   <lis>
 1    172 blond       fair    blue       19   male  mascu… Tatooi… Human   <chr>
 2    167 <NA>        gold    yellow    112   none  mascu… Tatooi… Droid   <chr>
 3     96 <NA>        white,… red        33   none  mascu… Naboo   Droid   <chr>
 4    202 none        white   yellow     41.9 male  mascu… Tatooi… Human   <chr>
 5    150 brown       light   brown      19   fema… femin… Aldera… Human   <chr>
 6    178 brown, grey light   blue       52   male  mascu… Tatooi… Human   <chr>
 7    165 brown       light   blue       47   fema… femin… Tatooi… Human   <chr>
 8     97 <NA>        white,… red        NA   none  mascu… Tatooi… Droid   <chr>
 9    183 black       light   brown      24   male  mascu… Tatooi… Human   <chr>
10    182 auburn, wh… fair    blue-g…    57   male  mascu… Stewjon Human   <chr>
# … with 77 more rows, 2 more variables: vehicles <list>, starships <list>, and
#   abbreviated variable names ¹​skin_color, ²​eye_color, ³​birth_year, ⁴​homeworld

По номерам

Или можно указать номера столбцов

starwars %>% 
  select(1, 2)

# A tibble: 87 × 2
   name               height
   <chr>               <int>
 1 Luke Skywalker        172
 2 C-3PO                 167
 3 R2-D2                  96
 4 Darth Vader           202
 5 Leia Organa           150
 6 Owen Lars             178
 7 Beru Whitesun lars    165
 8 R5-D4                  97
 9 Biggs Darklighter     183
10 Obi-Wan Kenobi        182
# … with 77 more rows
…
one_of: название столбца соответствует одному из вариантов

starts_with: название столбца начинается с

подробнее в ?select

Примеры:

contains

# отберем столбцы, название которых содержит букву «а».
starwars %>% 
  select(contains('a'))

# A tibble: 87 × 5
   name                mass hair_color    birth_year starships
   <chr>              <dbl> <chr>              <dbl> <list>   
 1 Luke Skywalker        77 blond               19   <chr [2]>
 2 C-3PO                 75 <NA>               112   <chr [0]>
 3 R2-D2                 32 <NA>                33   <chr [0]>
 4 Darth Vader          136 none                41.9 <chr [1]>
 5 Leia Organa           49 brown               19   <chr [0]>
 6 Owen Lars            120 brown, grey         52   <chr [0]>
 7 Beru Whitesun lars    75 brown               47   <chr [0]>
 8 R5-D4                 32 <NA>                NA   <chr [0]>
 9 Biggs Darklighter     84 black               24   <chr [1]>
10 Obi-Wan Kenobi        77 auburn, white       57   <chr [5]>
# … with 77 more rows

one_of

# отберем столбцы, название которых является одним из указанных
starwars %>% 
  select(one_of('mass', 'height'))

# A tibble: 87 × 2
    mass height
   <dbl>  <int>
 1    77    172
 2    75    167
 3    32     96
 4   136    202
 5    49    150
 6   120    178
 7    75    165
 8    32     97
 9    84    183
10    77    182
# … with 77 more rows

matches

# поиск по регулярному выражению
starwars %>% 
  select(matches('.*t+.+'))

# A tibble: 87 × 2
   birth_year starships
        <dbl> <list>   
 1       19   <chr [2]>
 2      112   <chr [0]>
 3       33   <chr [0]>
 4       41.9 <chr [1]>
 5       19   <chr [0]>
 6       52   <chr [0]>
 7       47   <chr [0]>
 8       NA   <chr [0]>
 9       24   <chr [1]>
10       57   <chr [5]>
# … with 77 more rows
…
Фильтрация строк

По логическому условию

starwars %>% 
  filter(mass > 50)

# A tibble: 46 × 14
   name        height  mass hair_…¹ skin_…² eye_c…³ birth…⁴ sex   gender homew…⁵
   <chr>        <int> <dbl> <chr>   <chr>   <chr>     <dbl> <chr> <chr>  <chr>  
 1 Luke Skywa…    172    77 blond   fair    blue       19   male  mascu… Tatooi…
 2 C-3PO          167    75 <NA>    gold    yellow    112   none  mascu… Tatooi…
 3 Darth Vader    202   136 none    white   yellow     41.9 male  mascu… Tatooi…
 4 Owen Lars      178   120 brown,… light   blue       52   male  mascu… Tatooi…
 5 Beru White…    165    75 brown   light   blue       47   fema… femin… Tatooi…
 6 Biggs Dark…    183    84 black   light   brown      24   male  mascu… Tatooi…
 7 Obi-Wan Ke…    182    77 auburn… fair    blue-g…    57   male  mascu… Stewjon
 8 Anakin Sky…    188    84 blond   fair    blue       41.9 male  mascu… Tatooi…
 9 Chewbacca      228   112 brown   unknown blue      200   male  mascu… Kashyy…
10 Han Solo       180    80 brown   fair    brown      29   male  mascu… Corell…
# … with 36 more rows, 4 more variables: species <chr>, films <list>,
#   vehicles <list>, starships <list>, and abbreviated variable names
#   ¹​hair_color, ²​skin_color, ³​eye_color, ⁴​birth_year, ⁵​homeworld

#комбинировать несколько условий можно с помощью & и |:
starwars %>% 
  filter(mass > 50 & height > 170)

# A tibble: 38 × 14
   name        height  mass hair_…¹ skin_…² eye_c…³ birth…⁴ sex   gender homew…⁵
   <chr>        <int> <dbl> <chr>   <chr>   <chr>     <dbl> <chr> <chr>  <chr>  
 1 Luke Skywa…    172    77 blond   fair    blue       19   male  mascu… Tatooi…
 2 Darth Vader    202   136 none    white   yellow     41.9 male  mascu… Tatooi…
 3 Owen Lars      178   120 brown,… light   blue       52   male  mascu… Tatooi…
 4 Biggs Dark…    183    84 black   light   brown      24   male  mascu… Tatooi…
 5 Obi-Wan Ke…    182    77 auburn… fair    blue-g…    57   male  mascu… Stewjon
 6 Anakin Sky…    188    84 blond   fair    blue       41.9 male  mascu… Tatooi…
 7 Chewbacca      228   112 brown   unknown blue      200   male  mascu… Kashyy…
 8 Han Solo       180    80 brown   fair    brown      29   male  mascu… Corell…
 9 Greedo         173    74 <NA>    green   black      44   male  mascu… Rodia  
10 Jabba Desi…    175  1358 <NA>    green-… orange    600   herm… mascu… Nal Hu…
# … with 28 more rows, 4 more variables: species <chr>, films <list>,
#   vehicles <list>, starships <list>, and abbreviated variable names
#   ¹​hair_color, ²​skin_color, ³​eye_color, ⁴​birth_year, ⁵​homeworld
…
%in%

!

between

near

xor

starwars %>% 
  filter(skin_color %in% c('fair', 'green'))

# A tibble: 23 × 14
   name        height  mass hair_…¹ skin_…² eye_c…³ birth…⁴ sex   gender homew…⁵
   <chr>        <int> <dbl> <chr>   <chr>   <chr>     <dbl> <chr> <chr>  <chr>  
 1 Luke Skywa…    172  77   blond   fair    blue       19   male  mascu… Tatooi…
 2 Obi-Wan Ke…    182  77   auburn… fair    blue-g…    57   male  mascu… Stewjon
 3 Anakin Sky…    188  84   blond   fair    blue       41.9 male  mascu… Tatooi…
 4 Wilhuff Ta…    180  NA   auburn… fair    blue       64   male  mascu… Eriadu 
 5 Han Solo       180  80   brown   fair    brown      29   male  mascu… Corell…
 6 Greedo         173  74   <NA>    green   black      44   male  mascu… Rodia  
 7 Wedge Anti…    170  77   brown   fair    hazel      21   male  mascu… Corell…
 8 Jek Tono P…    180 110   brown   fair    blue       NA   male  mascu… Bestin…
 9 Yoda            66  17   white   green   brown     896   male  mascu… <NA>   
10 Boba Fett      183  78.2 black   fair    brown      31.5 male  mascu… Kamino 
# … with 13 more rows, 4 more variables: species <chr>, films <list>,
#   vehicles <list>, starships <list>, and abbreviated variable names
#   ¹​hair_color, ²​skin_color, ³​eye_color, ⁴​birth_year, ⁵​homeworld
…
Сортировка строк

Для сортировки в языке есть достаточно широкие возможности. Вот самые основные виды сортировки:

По возрастанию

starwars %>% 
  arrange(mass)

# A tibble: 87 × 14
   name        height  mass hair_…¹ skin_…² eye_c…³ birth…⁴ sex   gender homew…⁵
   <chr>        <int> <dbl> <chr>   <chr>   <chr>     <dbl> <chr> <chr>  <chr>  
 1 Ratts Tyer…     79    15 none    grey, … unknown      NA male  mascu… Aleen …
 2 Yoda            66    17 white   green   brown       896 male  mascu… <NA>   
 3 Wicket Sys…     88    20 brown   brown   brown         8 male  mascu… Endor  
 4 R2-D2           96    32 <NA>    white,… red          33 none  mascu… Naboo  
 5 R5-D4           97    32 <NA>    white,… red          NA none  mascu… Tatooi…
 6 Sebulba        112    40 none    grey, … orange       NA male  mascu… Malast…
 7 Dud Bolt        94    45 none    blue, … yellow       NA male  mascu… Vulpter
 8 Padmé Amid…    165    45 brown   light   brown        46 fema… femin… Naboo  
 9 Wat Tambor     193    48 none    green,… unknown      NA male  mascu… Skako  
10 Sly Moore      178    48 none    pale    white        NA <NA>  <NA>   Umbara 
# … with 77 more rows, 4 more variables: species <chr>, films <list>,
#   vehicles <list>, starships <list>, and abbreviated variable names
#   ¹​hair_color, ²​skin_color, ³​eye_color, ⁴​birth_year, ⁵​homeworld

По убыванию

# сортировка по убыванию
starwars %>% 
  arrange(desc(mass))

# A tibble: 87 × 14
   name        height  mass hair_…¹ skin_…² eye_c…³ birth…⁴ sex   gender homew…⁵
   <chr>        <int> <dbl> <chr>   <chr>   <chr>     <dbl> <chr> <chr>  <chr>  
 1 Jabba Desi…    175  1358 <NA>    green-… orange    600   herm… mascu… Nal Hu…
 2 Grievous       216   159 none    brown,… green,…    NA   male  mascu… Kalee  
 3 IG-88          200   140 none    metal   red        15   none  mascu… <NA>   
 4 Darth Vader    202   136 none    white   yellow     41.9 male  mascu… Tatooi…
 5 Tarfful        234   136 brown   brown   blue       NA   male  mascu… Kashyy…
 6 Owen Lars      178   120 brown,… light   blue       52   male  mascu… Tatooi…
 7 Bossk          190   113 none    green   red        53   male  mascu… Trando…
 8 Chewbacca      228   112 brown   unknown blue      200   male  mascu… Kashyy…
 9 Jek Tono P…    180   110 brown   fair    blue       NA   male  mascu… Bestin…
10 Dexter Jet…    198   102 none    brown   yellow     NA   male  mascu… Ojom   
# … with 77 more rows, 4 more variables: species <chr>, films <list>,
#   vehicles <list>, starships <list>, and abbreviated variable names
#   ¹​hair_color, ²​skin_color, ³​eye_color, ⁴​birth_year, ⁵​homeworld

По нескольким столбцам

# сортировка по нескольким столбцам
starwars %>% 
  arrange(height, desc(mass))

# A tibble: 87 × 14
   name        height  mass hair_…¹ skin_…² eye_c…³ birth…⁴ sex   gender homew…⁵
   <chr>        <int> <dbl> <chr>   <chr>   <chr>     <dbl> <chr> <chr>  <chr>  
 1 Yoda            66    17 white   green   brown       896 male  mascu… <NA>   
 2 Ratts Tyer…     79    15 none    grey, … unknown      NA male  mascu… Aleen …
 3 Wicket Sys…     88    20 brown   brown   brown         8 male  mascu… Endor  
 4 Dud Bolt        94    45 none    blue, … yellow       NA male  mascu… Vulpter
 5 R2-D2           96    32 <NA>    white,… red          33 none  mascu… Naboo  
 6 R4-P17          96    NA none    silver… red, b…      NA none  femin… <NA>   
 7 R5-D4           97    32 <NA>    white,… red          NA none  mascu… Tatooi…
 8 Sebulba        112    40 none    grey, … orange       NA male  mascu… Malast…
 9 Gasgano        122    NA none    white,… black        NA male  mascu… Troiken
10 Watto          137    NA black   blue, … yellow       NA male  mascu… Toydar…
# … with 77 more rows, 4 more variables: species <chr>, films <list>,
#   vehicles <list>, starships <list>, and abbreviated variable names
#   ¹​hair_color, ²​skin_color, ³​eye_color, ⁴​birth_year, ⁵​homeworld

Расширенная сортировка

При сортировке можно использовать вспомогательные функции для select, только внутри функции across

starwars %>% 
  arrange(across(ends_with('_color'), desc))

# A tibble: 87 × 14
   name        height  mass hair_…¹ skin_…² eye_c…³ birth…⁴ sex   gender homew…⁵
   <chr>        <int> <dbl> <chr>   <chr>   <chr>     <dbl> <chr> <chr>  <chr>  
 1 Ki-Adi-Mun…    198    82 white   pale    yellow     92   male  mascu… Cerea  
 2 Yoda            66    17 white   green   brown     896   male  mascu… <NA>   
 3 Dooku          193    80 white   fair    brown     102   male  mascu… Serenno
 4 Jocasta Nu     167    NA white   fair    blue       NA   fema… femin… Corusc…
 5 Captain Ph…     NA    NA unknown unknown unknown    NA   <NA>  <NA>   <NA>   
 6 Gasgano        122    NA none    white,… black      NA   male  mascu… Troiken
 7 Darth Vader    202   136 none    white   yellow     41.9 male  mascu… Tatooi…
 8 Yarael Poof    264    NA none    white   yellow     NA   male  mascu… Quermia
 9 R4-P17          96    NA none    silver… red, b…    NA   none  femin… <NA>   
10 Shaak Ti       178    57 none    red, b… black      NA   fema… femin… Shili  
# … with 77 more rows, 4 more variables: species <chr>, films <list>,
#   vehicles <list>, starships <list>, and abbreviated variable names
#   ¹​hair_color, ²​skin_color, ³​eye_color, ⁴​birth_year, ⁵​homeworld

Группировка и агрегатные функции

# сама по себе группировка не несет смысла, только в сочетании с агрегирующими функциями
starwars %>% 
  group_by(eye_color)

# A tibble: 87 × 14
# Groups:   eye_color [15]
   name        height  mass hair_…¹ skin_…² eye_c…³ birth…⁴ sex   gender homew…⁵
   <chr>        <int> <dbl> <chr>   <chr>   <chr>     <dbl> <chr> <chr>  <chr>  
 1 Luke Skywa…    172    77 blond   fair    blue       19   male  mascu… Tatooi…
 2 C-3PO          167    75 <NA>    gold    yellow    112   none  mascu… Tatooi…
 3 R2-D2           96    32 <NA>    white,… red        33   none  mascu… Naboo  
 4 Darth Vader    202   136 none    white   yellow     41.9 male  mascu… Tatooi…
 5 Leia Organa    150    49 brown   light   brown      19   fema… femin… Aldera…
 6 Owen Lars      178   120 brown,… light   blue       52   male  mascu… Tatooi…
 7 Beru White…    165    75 brown   light   blue       47   fema… femin… Tatooi…
 8 R5-D4           97    32 <NA>    white,… red        NA   none  mascu… Tatooi…
 9 Biggs Dark…    183    84 black   light   brown      24   male  mascu… Tatooi…
10 Obi-Wan Ke…    182    77 auburn… fair    blue-g…    57   male  mascu… Stewjon
# … with 77 more rows, 4 more variables: species <chr>, films <list>,
#   vehicles <list>, starships <list>, and abbreviated variable names
#   ¹​hair_color, ²​skin_color, ³​eye_color, ⁴​birth_year, ⁵​homeworld
…
Вычисляемые столбцы

Новый столбец

starwars %>% 
  select(name, height, mass) %>% 
  mutate('coef' = mass/height)

# A tibble: 87 × 4
   name               height  mass  coef
   <chr>               <int> <dbl> <dbl>
 1 Luke Skywalker        172    77 0.448
 2 C-3PO                 167    75 0.449
 3 R2-D2                  96    32 0.333
 4 Darth Vader           202   136 0.673
 5 Leia Organa           150    49 0.327
 6 Owen Lars             178   120 0.674
 7 Beru Whitesun lars    165    75 0.455
 8 R5-D4                  97    32 0.330
 9 Biggs Darklighter     183    84 0.459
10 Obi-Wan Kenobi        182    77 0.423
# … with 77 more rows

Изменить несколько столбцов

Применить функцию ко всем столбцам по условию

starwars %>% 
  mutate(
    across(
      .cols = where(is.numeric), # применить функцию ко всем числовым столбцам
      .fns = function(x) x*10 # x в function это стоблцы по условию в cols
    )
  )

# A tibble: 87 × 14
   name        height  mass hair_…¹ skin_…² eye_c…³ birth…⁴ sex   gender homew…⁵
   <chr>        <dbl> <dbl> <chr>   <chr>   <chr>     <dbl> <chr> <chr>  <chr>  
 1 Luke Skywa…   1720   770 blond   fair    blue        190 male  mascu… Tatooi…
 2 C-3PO         1670   750 <NA>    gold    yellow     1120 none  mascu… Tatooi…
 3 R2-D2          960   320 <NA>    white,… red         330 none  mascu… Naboo  
 4 Darth Vader   2020  1360 none    white   yellow      419 male  mascu… Tatooi…
 5 Leia Organa   1500   490 brown   light   brown       190 fema… femin… Aldera…
 6 Owen Lars     1780  1200 brown,… light   blue        520 male  mascu… Tatooi…
 7 Beru White…   1650   750 brown   light   blue        470 fema… femin… Tatooi…
 8 R5-D4          970   320 <NA>    white,… red          NA none  mascu… Tatooi…
 9 Biggs Dark…   1830   840 black   light   brown       240 male  mascu… Tatooi…
10 Obi-Wan Ke…   1820   770 auburn… fair    blue-g…     570 male  mascu… Stewjon
# … with 77 more rows, 4 more variables: species <chr>, films <list>,
#   vehicles <list>, starships <list>, and abbreviated variable names
#   ¹​hair_color, ²​skin_color, ³​eye_color, ⁴​birth_year, ⁵​homeworld

Оконные функции

starwars %>% 
  select(name, height, mass) %>% 
  mutate('rnk' = dense_rank(mass)) %>% 
  mutate('r_num' = row_number(mass)) 

# A tibble: 87 × 5
   name               height  mass   rnk r_num
   <chr>               <int> <dbl> <int> <int>
 1 Luke Skywalker        172    77    18    25
 2 C-3PO                 167    75    17    22
 3 R2-D2                  96    32     4     4
 4 Darth Vader           202   136    35    55
 5 Leia Organa           150    49     8    11
 6 Owen Lars             178   120    34    54
 7 Beru Whitesun lars    165    75    17    23
 8 R5-D4                  97    32     4     5
 9 Biggs Darklighter     183    84    24    42
10 Obi-Wan Kenobi        182    77    18    26
# … with 77 more rows

Вычисление с условием

starwars %>% 
  select(name, height, mass) %>% 
  # логические условия в вычислении
  mutate('case_col' = case_when(
    name == 'Luke Skywalker' | name == 'Leia Organa'  ~ 'Главный герой',
    name == 'Darth Vader' ~ 'Главный злодей',
    TRUE ~ 'Другой персонаж'
    ))

# A tibble: 87 × 4
   name               height  mass case_col       
   <chr>               <int> <dbl> <chr>          
 1 Luke Skywalker        172    77 Главный герой  
 2 C-3PO                 167    75 Другой персонаж
 3 R2-D2                  96    32 Другой персонаж
 4 Darth Vader           202   136 Главный злодей 
 5 Leia Organa           150    49 Главный герой  
 6 Owen Lars             178   120 Другой персонаж
 7 Beru Whitesun lars    165    75 Другой персонаж
 8 R5-D4                  97    32 Другой персонаж
 9 Biggs Darklighter     183    84 Другой персонаж
10 Obi-Wan Kenobi        182    77 Другой персонаж
# … with 77 more rows

Обработка нуллов

starwars %>% 
  select(name, height, mass) %>% 
  # логические условия в вычислении
  mutate('case_col' = case_when(
    name == 'Luke Skywalker' | name == 'Leia Organa'  ~ 'Главный герой',
    name == 'Darth Vader' ~ 'Главный злодей'
    )) %>% 
  mutate('coalesce_col' = coalesce(case_col, 'другой персонаж'))

# A tibble: 87 × 5
   name               height  mass case_col       coalesce_col   
   <chr>               <int> <dbl> <chr>          <chr>          
 1 Luke Skywalker        172    77 Главный герой  Главный герой  
 2 C-3PO                 167    75 <NA>           другой персонаж
 3 R2-D2                  96    32 <NA>           другой персонаж
 4 Darth Vader           202   136 Главный злодей Главный злодей 
 5 Leia Organa           150    49 Главный герой  Главный герой  
 6 Owen Lars             178   120 <NA>           другой персонаж
 7 Beru Whitesun lars    165    75 <NA>           другой персонаж
 8 R5-D4                  97    32 <NA>           другой персонаж
 9 Biggs Darklighter     183    84 <NA>           другой персонаж
10 Obi-Wan Kenobi        182    77 <NA>           другой персонаж
# … with 77 more rows
…
