Dplyr
…
[[2]]
# A tibble: 1 × 14
  name      height  mass hair_color skin_color eye_color birth_year sex   gender
  <chr>      <int> <dbl> <chr>      <chr>      <chr>          <dbl> <chr> <chr> 
1 Jabba De…    175  1358 <NA>       green-tan… orange           600 herm… mascu…
# ℹ 5 more variables: homeworld <chr>, species <chr>, films <list>,
#   vehicles <list>, starships <list>

[[3]]
# A tibble: 60 × 14
   name     height  mass hair_color skin_color eye_color birth_year sex   gender
   <chr>     <int> <dbl> <chr>      <chr>      <chr>          <dbl> <chr> <chr> 
 1 Luke Sk…    172    77 blond      fair       blue            19   male  mascu…
 2 Darth V…    202   136 none       white      yellow          41.9 male  mascu…
 3 Owen La…    178   120 brown, gr… light      blue            52   male  mascu…
 4 Biggs D…    183    84 black      light      brown           24   male  mascu…
 5 Obi-Wan…    182    77 auburn, w… fair       blue-gray       57   male  mascu…
 6 Anakin …    188    84 blond      fair       blue            41.9 male  mascu…
 7 Wilhuff…    180    NA auburn, g… fair       blue            64   male  mascu…
 8 Chewbac…    228   112 brown      unknown    blue           200   male  mascu…
 9 Han Solo    180    80 brown      fair       brown           29   male  mascu…
10 Greedo      173    74 <NA>       green      black           44   male  mascu…
# ℹ 50 more rows
# ℹ 5 more variables: homeworld <chr>, species <chr>, films <list>,
#   vehicles <list>, starships <list>
…
