Tibble
…
width - ширина выводимого текста фрейма

n - количество отображаемых строк

max_extra_cols - количество дополнительных столбцов для печати сокращенной информации, если ширина слишком мала для всего текста

max_footer_lines - максимальное количество строк нижнего колонтитула. Если значение равно NULL, используется параметр max_footer_lines.

Использование

print(x, width = NULL, ..., n = NULL, max_extra_cols = NULL, max_footer_lines = NULL)

print(as_tibble(mtcars), n = 1, width = 50)

# A tibble: 32 × 11
    mpg   cyl  disp    hp  drat    wt  qsec    vs
  <dbl> <dbl> <dbl> <dbl> <dbl> <dbl> <dbl> <dbl>
1    21     6   160   110   3.9  2.62  16.5     0
# … with 31 more rows, and 3 more variables:
#   am <dbl>, gear <dbl>, carb <dbl>

print(as_tibble(mtcars), n = 3, width = 50)

# A tibble: 32 × 11
    mpg   cyl  disp    hp  drat    wt  qsec    vs
  <dbl> <dbl> <dbl> <dbl> <dbl> <dbl> <dbl> <dbl>
1  21       6   160   110  3.9   2.62  16.5     0
2  21       6   160   110  3.9   2.88  17.0     0
3  22.8     4   108    93  3.85  2.32  18.6     1
# … with 29 more rows, and 3 more variables:
#   am <dbl>, gear <dbl>, carb <dbl>
…
# A tibble: 2 × 1
  data        
  <named list>
1 <chr [1]>   
2 <list [1]>  

Обработка имен строк

Рассмотрим обработку имен строк на примере фрейма данных mtcars

mtcars

# A tibble: 32 × 11
     mpg   cyl  disp    hp  drat    wt  qsec    vs    am  gear  carb
   <dbl> <dbl> <dbl> <dbl> <dbl> <dbl> <dbl> <dbl> <dbl> <dbl> <dbl>
 1  21       6  160    110  3.9   2.62  16.5     0     1     4     4
 2  21       6  160    110  3.9   2.88  17.0     0     1     4     4
 3  22.8     4  108     93  3.85  2.32  18.6     1     1     4     1
 4  21.4     6  258    110  3.08  3.22  19.4     1     0     3     1
 5  18.7     8  360    175  3.15  3.44  17.0     0     0     3     2
 6  18.1     6  225    105  2.76  3.46  20.2     1     0     3     1
 7  14.3     8  360    245  3.21  3.57  15.8     0     0     3     4
 8  24.4     4  147.    62  3.69  3.19  20       1     0     4     2
 9  22.8     4  141.    95  3.92  3.15  22.9     1     0     4     2
10  19.2     6  168.   123  3.92  3.44  18.3     1     0     4     4
# … with 22 more rows
…
[1] FALSE

rownames_to_column

Определение

Преобразует имена строк в столбец

Использование

rownames_to_column(.data, var = "rowname")

mtcars

# A tibble: 32 × 11
     mpg   cyl  disp    hp  drat    wt  qsec    vs    am  gear  carb
   <dbl> <dbl> <dbl> <dbl> <dbl> <dbl> <dbl> <dbl> <dbl> <dbl> <dbl>
 1  21       6  160    110  3.9   2.62  16.5     0     1     4     4
 2  21       6  160    110  3.9   2.88  17.0     0     1     4     4
 3  22.8     4  108     93  3.85  2.32  18.6     1     1     4     1
 4  21.4     6  258    110  3.08  3.22  19.4     1     0     3     1
 5  18.7     8  360    175  3.15  3.44  17.0     0     0     3     2
 6  18.1     6  225    105  2.76  3.46  20.2     1     0     3     1
 7  14.3     8  360    245  3.21  3.57  15.8     0     0     3     4
 8  24.4     4  147.    62  3.69  3.19  20       1     0     4     2
 9  22.8     4  141.    95  3.92  3.15  22.9     1     0     4     2
10  19.2     6  168.   123  3.92  3.44  18.3     1     0     4     4
# … with 22 more rows

mtcars_tbl <- rownames_to_column(mtcars, var = "car") %>% 
  as_tibble()

mtcars_tbl

# A tibble: 32 × 12
   car           mpg   cyl  disp    hp  drat    wt  qsec    vs    am  gear  carb
   <chr>       <dbl> <dbl> <dbl> <dbl> <dbl> <dbl> <dbl> <dbl> <dbl> <dbl> <dbl>
 1 Mazda RX4    21       6  160    110  3.9   2.62  16.5     0     1     4     4
 2 Mazda RX4 …  21       6  160    110  3.9   2.88  17.0     0     1     4     4
 3 Datsun 710   22.8     4  108     93  3.85  2.32  18.6     1     1     4     1
 4 Hornet 4 D…  21.4     6  258    110  3.08  3.22  19.4     1     0     3     1
 5 Hornet Spo…  18.7     8  360    175  3.15  3.44  17.0     0     0     3     2
 6 Valiant      18.1     6  225    105  2.76  3.46  20.2     1     0     3     1
 7 Duster 360   14.3     8  360    245  3.21  3.57  15.8     0     0     3     4
 8 Merc 240D    24.4     4  147.    62  3.69  3.19  20       1     0     4     2
 9 Merc 230     22.8     4  141.    95  3.92  3.15  22.9     1     0     4     2
10 Merc 280     19.2     6  168.   123  3.92  3.44  18.3     1     0     4     4
# … with 22 more rows
…
